Exponential – SOCIOL 212B: Quantitative Data Analysis
…
  # Remove if died on the day of transplant
  filter(tx.date != fu.date) |>
  # Construct variables we will use
  mutate(
    # Age at transplant is difference between treatment date and birth date
    age = as.numeric(difftime(tx.date, birth.dt, units = "days")) / 365.25,
    # Time is difference between follow-up date and treatment date
    t = as.numeric(difftime(fu.date, tx.date, units = "days")) / 365.25,
    # Censoring is defined by follow-up status
    c = fustat == 0
  ) |>
  select(age, c, t) |>
  print(n = 3)

# A tibble: 68 × 3
    age c           t
  <dbl> <lgl>   <dbl>
1  54.3 FALSE 0.0411 
2  40.4 FALSE 0.00821
3  51.0 FALSE 1.71   
# ℹ 65 more rows
…
